{
  "type": "service_account",
  "project_id": "api-5854032360935296696-862382",
  "private_key_id": "45aab6fa36bbdc97b39a4f556e8c6b070ba3e83d",
  "private_key": "-----BEGIN PRIVATE KEY-----\nMIIEvgIBADANBgkqhkiG9w0BAQEFAASCBKgwggSkAgEAAoIBAQCwNQCwt7vMajVW\nilyK8iDbZsFf3kw2a/AWaGOnu0MvPrDJtAX4XWuQb5NP6sc58ZS3jYHSV3FRGdG2\nOKkoeqWxm7VuB3J7j+jbGfewtzmFcM6/IJW2yhsLv6c31Z9iBlUNCLQt/Bp+Ai6j\nXm84ZjcL0I/nvpOzao3Tiq3Ea+tmoijhEIZR/A/RSzcpEfYNK3nVpYWqkKjuXaE1\nRO6EpVRWiY8VTZciu+GYhHgxaM4sYHdlAo200q7dMcFrUWu36JvnLgVG9KnWH2RV\n0ncay0Lusej5+ql9CaScWBqThfMT08pFqPsReffZsT5czr7vyBlglYlWdJ+biVXJ\n+ssI7mlnAgMBAAECggEAUDI3V7avwufd0b7UQqrTmHeqcBsJHcW/djtZi9f3SnPi\nW1LTWsgN8iVN6xQES5NvZ6EAYn7IxKwXHbOpDZLQgcbH6sV57dHAHaQybpvdkqWW\nezd13EUczRqTnR5dVWxjXjTFaJ5yYkJU/qa2wPkIeZiZPlSm/YPz+8EEuD6T21gU\nb9SSQxb5VXSaLWqySZUGdRN6Z/FSmpFJ/tZJbFYmAwMsVgVtFA80yS6vtXiDyPPZ\nuth5SYKSCEzGc82ulE0glNkj1OSdeHU6zzUCJqfCut//KB/Mew4JthL9mUoIm8IM\nHUlr1DGydtMh5niE7a8WY3t8GsvLFKbVCKp5JAhwPQKBgQDykzce0LEUDJKumuhk\n6IGyTX4Vxs3jXA6NeIQJuiC4oWCPmk/m9VlbZF353ejeHeLQWU/QK03aknbpJpUJ\nSNzATj348iZwCXPT+koDQc3wHe6/SB0qpIJn0GNGvybcAl0o5Dsbw6L9v5H/fSv5\nHXmr5p2kRb9iyfmBzndAfgQelQKBgQC59X2NOGO6XnaG80AT3Ro2VVulS86GfV9S\n1gxsY0oGLcMu0iMlfn455ntKk1X5i4fhqwROBcNVEU8fEhe0jHqWmxB1iZtQgR12\nX7+pb72oe3y2Le2klcsfza4DuQweLkYtje0Br3ABPh3ztJ6/klKDKyeWiAMuqXSo\ncUomgut1CwKBgCX0HrW1lV87sF+dYSsYreJF+apSlrgyGRzNdGtJMgFxTnhpfoL2\ndGq2Q3Xq4JqQNoK+1pwNinreW7iTDtKLEe8Mzul6icUR1YufJ6Fm1F/zbv2CvP2F\nC9pOYpoZIm1d+VGClDT94SyuoptE7HJnyDe7N4MSXqWIUH+c3E+858wZAoGBAIaC\nkV+OM20CmT/CQk5b93LnyVPGgsv7cfEsTW41X70aav26GJwtZEajdfkam+zWxeIx\nXvrE5mbpD09NOgJqPt4jqgMrF0JjMpmGZs+7uPde43WvwR71DymhEEc3GhHWrQKU\nj6RRb3YmpWm787xkrfSdSZR0K8Eb5/tTfyxeNMzDAoGBAItW/CfqGlhEVhmwbB3O\n19Ue6uAKR1bikZaDF+mBtGLJLPMLSPG/MxmXViThyAEUcIYUKoTK3tdUlzyxNw+x\n5KfNWzgoCfl9yv9J/7zWHc1kGOKcZNcppwthuLXfCteA+FIiqqX7ddut/6zhUG6I\nqedA4OTCygg7wnGd1u35kgDt\n-----END PRIVATE KEY-----\n",
  "client_email": "bfapi-93@api-5854032360935296696-862382.iam.gserviceaccount.com",
  "client_id": "113776704516106101636",
  "auth_uri": "https://accounts.google.com/o/oauth2/auth",
  "token_uri": "https://oauth2.googleapis.com/token",
  "auth_provider_x509_cert_url": "https://www.googleapis.com/oauth2/v1/certs",
  "client_x509_cert_url": "https://www.googleapis.com/robot/v1/metadata/x509/bfapi-93%40api-5854032360935296696-862382.iam.gserviceaccount.com"
}
