legacy_id;nombre_es;nombre_en;description_es;description_en;indicaciones;program;easier _variation;harder_variation;material;link;deprecated;replacement_legacy_id;family;sub_family;body_parts_focused;muscles;joints;met_multiplier;test_correction;notes_en;notes_es;execution_time;coach_id
61;Plank;Plank;"Coloca el cuerpo boca abajo apoyando los antebrazos y las puntas de los pies en el suelo. Mantén piernas, tronco y cabeza estirados en una línea paralela al suelo. 

Cuenta una repetición por segundo

**Ten en cuenta:**

- Mira hacia adelante. 
- Mantén la posición horizontal sin dejar caer o subir demasiado la pelvis.
- Concéntrate en entrar el ombligo hacia adentro para que no se distienda la barriga
- Manten la columna dorsal recta sacando pecho y las lumbares alineadas.

**Ejercicio alternativo:**

- Abdominal con extensión";"Lay facing down placing your forearms and toes on the floor. Keep legs, trunk and head straight in a parallel line to the ground. 

Count one rep per second.

**Note:**

- Look forward. 
- Keep horizontal position avoiding dropping or raising hips.

**Alternative exercise:**

- Sit up with extension";;Mammoth Hunters;;;;https://www.youtube.com/watch?v=4gRisvZQwg0;TRUE;63;core;SUBFAMILY_PLANK;core;Erector de la columna, músculo recto mayor del abdomen, músculo transverso del abdomen.;Hombro, tobillo;0.12;1.5;notes en;notes es;2.3;1
62;Plank pivot;Plank pivot;"Desde la posición de plank deja caer la pelvis hasta tocar con el suelo, y seguidamente elévala al máximo en flexión de tronco.

Cuenta una repetición cada vez que bajas la pelvis al suelo

**Ten en cuenta:**

- Marca el movimiento completo. 
- Mantén la mirada al frente.

**Ejercicio alternativo:**

- Sit up con extensión";"From the plank position drop hips until they touch the ground, then raise them to your maximum trunk flexion.
 
Count one repetition each time hips touch the ground 

**Note:**

- Make sure to do a full range movement.
- Look forward.

**Alternative exercise:**

- Sit up with extension";;Mammoth Hunters;;;;https://youtu.be/Mueee3CA8o8;FALSE;;core;SUBFAMILY_PLANK;Core;Erector de la columna, músculo recto mayor del abdomen, músculo transverso del abdomen.;Cadera, Hombro, Tobillo;0.5;1.5;notes en;notes en;2.3;1