block;block_type;set;set_type;ex_id;ex_order;time_duration;reps;track_reps;set_time;
1;tabata;1;tabata;1;1;10;15;true;80;
1;;1;;2;2;10;15;false;;
1;;2;to_the_one;2;1;10;15;true;50;
1;;2;;1;2;10;15;false;;